…
``` r
data_raw # str(data_raw) , glimpse(data_raw)
```

    ## # A tibble: 891 x 12
    ##    PassengerId Survived Pclass Name  Sex     Age SibSp Parch Ticket  Fare
    ##          <dbl>    <dbl>  <dbl> <chr> <chr> <dbl> <dbl> <dbl> <chr>  <dbl>
    ##  1           1        0      3 Brau… male     22     1     0 A/5 2…  7.25
    ##  2           2        1      1 Cumi… fema…    38     1     0 PC 17… 71.3 
    ##  3           3        1      3 Heik… fema…    26     0     0 STON/…  7.92
    ##  4           4        1      1 Futr… fema…    35     1     0 113803 53.1 
    ##  5           5        0      3 Alle… male     35     0     0 373450  8.05
    ##  6           6        0      3 Mora… male     NA     0     0 330877  8.46
    ##  7           7        0      1 McCa… male     54     0     0 17463  51.9 
    ##  8           8        0      3 Pals… male      2     3     1 349909 21.1 
    ##  9           9        1      3 John… fema…    27     0     2 347742 11.1 
    ## 10          10        1      2 Nass… fema…    14     1     0 237736 30.1 
    ## # … with 881 more rows, and 2 more variables: Cabin <chr>, Embarked <chr>
…
    ## cols(
    ##   PassengerId = col_double(),
    ##   Pclass = col_double(),
    ##   Name = col_character(),
    ##   Sex = col_character(),
    ##   Age = col_double(),
    ##   SibSp = col_double(),
    ##   Parch = col_double(),
    ##   Ticket = col_character(),
    ##   Fare = col_double(),
    ##   Cabin = col_character(),
    ##   Embarked = col_character()
    ## )

    ## # A tibble: 418 x 2
    ##    PassengerId Survived
    ##          <dbl>    <dbl>
    ##  1         892        0
    ##  2         893        0
    ##  3         894        0
    ##  4         895        0
    ##  5         896        0
    ##  6         897        0
    ##  7         898        0
    ##  8         899        0
    ##  9         900        0
    ## 10         901        0
    ## # … with 408 more rows
…
    ## cols(
    ##   PassengerId = col_double(),
    ##   Pclass = col_double(),
    ##   Name = col_character(),
    ##   Sex = col_character(),
    ##   Age = col_double(),
    ##   SibSp = col_double(),
    ##   Parch = col_double(),
    ##   Ticket = col_character(),
    ##   Fare = col_double(),
    ##   Cabin = col_character(),
    ##   Embarked = col_character()
    ## )

    ## # A tibble: 418 x 2
    ##    PassengerId Survived
    ##          <dbl>    <dbl>
    ##  1         892        0
    ##  2         893        1
    ##  3         894        0
    ##  4         895        0
    ##  5         896        1
    ##  6         897        0
    ##  7         898        1
    ##  8         899        0
    ##  9         900        1
    ## 10         901        0
    ## # … with 408 more rows
…
    ## cols(
    ##   PassengerId = col_double(),
    ##   Pclass = col_double(),
    ##   Name = col_character(),
    ##   Sex = col_character(),
    ##   Age = col_double(),
    ##   SibSp = col_double(),
    ##   Parch = col_double(),
    ##   Ticket = col_character(),
    ##   Fare = col_double(),
    ##   Cabin = col_character(),
    ##   Embarked = col_character()
    ## )

    ## # A tibble: 418 x 2
    ##    PassengerId Survived
    ##          <dbl>    <dbl>
    ##  1         892        0
    ##  2         893        1
    ##  3         894        0
    ##  4         895        0
    ##  5         896        1
    ##  6         897        0
    ##  7         898        1
    ##  8         899        0
    ##  9         900        1
    ## 10         901        0
    ## # … with 408 more rows
…
